…
    ## Rows: 1136 Columns: 5
    ## ── Column specification ────────────────────────────────────────────────────────
    ## Delimiter: ","
    ## chr (2): baker, result
    ## dbl (3): series, episode, technical
    ## 
    ## ℹ Use `spec()` to retrieve the full column specification for this data.
    ## ℹ Specify the column types or set `show_col_types = FALSE` to quiet this message.

using anti\_join() to check for completeness and correctness

    anti_join(bakes_df, bakers_df, by = c("baker", "series"))

    ## # A tibble: 548 × 5
    ##    series episode baker     signature_bake                          show_stopper
    ##     <dbl>   <dbl> <chr>     <chr>                                   <chr>       
    ##  1      1       1 Annetha   "Light Jamaican Black Cakewith Strawbe… Red, White …
    ##  2      1       1 David     "Chocolate Orange Cake"                 Black Fores…
    ##  3      1       1 Edd       "Caramel Cinnamon and Banana Cake"      <NA>        
    ##  4      1       1 Jasminder "Fresh Mango and Passion Fruit Humming… <NA>        
    ##  5      1       1 Jonathan  "Carrot Cake with Lime and Cream Chees… Three Tiere…
    ##  6      1       1 Lea       "Cranberry and Pistachio Cakewith Oran… Raspberries…
    ##  7      1       1 Louise    "Carrot and Orange Cake"                Never Fail …
    ##  8      1       1 Mark      "Sticky Marmalade Tea Loaf"             Heart-shape…
    ##  9      1       1 Miranda   "Triple Layered Brownie Meringue Cake\… Three Tiere…
    ## 10      1       1 Ruth      "Three Tiered Lemon Drizzle Cakewith F… Classic Cho…
    ## # ℹ 538 more rows

    anti_join(results_df, bakers_df, by = c("baker", "series"))

    ## # A tibble: 1,136 × 5
    ##    series episode baker     technical result
    ##     <dbl>   <dbl> <chr>         <dbl> <chr> 
    ##  1      1       1 Annetha           2 IN    
    ##  2      1       1 David             3 IN    
    ##  3      1       1 Edd               1 IN    
    ##  4      1       1 Jasminder        NA IN    
    ##  5      1       1 Jonathan          9 IN    
    ##  6      1       1 Louise           NA IN    
    ##  7      1       1 Miranda           8 IN    
    ##  8      1       1 Ruth             NA IN    
    ##  9      1       1 Lea              10 OUT   
    ## 10      1       1 Mark             NA OUT   
    ## # ℹ 1,126 more rows

    anti_join(results_df, bakes_df, by = c("baker", "episode", "series"))

    ## # A tibble: 596 × 5
    ##    series episode baker    technical result
    ##     <dbl>   <dbl> <chr>        <dbl> <chr> 
    ##  1      1       2 Lea             NA <NA>  
    ##  2      1       2 Mark            NA <NA>  
    ##  3      1       3 Annetha         NA <NA>  
    ##  4      1       3 Lea             NA <NA>  
    ##  5      1       3 Louise          NA <NA>  
    ##  6      1       3 Mark            NA <NA>  
    ##  7      1       4 Annetha         NA <NA>  
    ##  8      1       4 Jonathan        NA <NA>  
    ##  9      1       4 Lea             NA <NA>  
    ## 10      1       4 Louise          NA <NA>  
    ## # ℹ 586 more rows
…
